{
  "compilerOptions": {
    "baseUrl": "./",
    "paths": {
      "ui-components": ["../ui-components/src/index.js"],
      "state/*": ["./src/state/*"],
      "assets/*": ["./src/assets/*"],
      "utils/*": ["./src/utils/*"],
      "contexts/*": ["./src/contexts/*"]
    }
  },
  "exclude": ["./node_modules", "./dist"],
  "include": ["./src"]
}
