{
	"dataSet": "757b64e5-bb80-4316-baeb-334e1684344f",
	"version": "55dfeeef-34d3-4e8a-abf7-sadfe5b4d223",
	"schema": {
		"County": {
			"type": "string",
			"quantity": false,
			"category": false,
			"summary": false,
			"filter": true
		},
		"County id": {
			"type": "string",
			"quantity": false,
			"category": false,
			"summary": false,
			"filter": true
		},
		"Population": {
			"type": "number",
			"quantity": true,
			"category": false,
			"summary": true,
			"filter": true
		},
		"Median age": {
			"type": "number",
			"quantity": true,
			"category": false,
			"summary": false,
			"filter": true
		},
		"Households": {
			"type": "number",
			"quantity": true,
			"category": false,
			"summary": true,
			"filter": true
		},
		"Median income": {
			"type": "number",
			"quantity": true,
			"category": false,
			"summary": false,
			"filter": true
		},
		"Unemployment rate": {
			"type": "number",
			"quantity": true,
			"category": false,
			"summary": false,
			"filter": true
		},
		"Median household value": {
			"type": "number",
			"quantity": true,
			"category": false,
			"summary": false,
			"filter": true
		},
		"State code": {
			"type": "string",
			"quantity": false,
			"category": false,
			"summary": false,
			"filter": true
		},
		"State": {
			"type": "string",
			"quantity": false,
			"category": true,
			"summary": false,
			"filter": true
		}
	}
}